<svg width="25" height="25" viewBox="0 0 25 25" fill="none" xmlns="http://www.w3.org/2000/svg">
<path d="M7.5 10L12.5 15L17.5 10" stroke="#2C3D8F" stroke-width="1.2" stroke-linecap="round" stroke-linejoin="round"/>
</svg>
