<svg width="30" height="30" viewBox="0 0 30 30" fill="none" xmlns="http://www.w3.org/2000/svg">
<path d="M17.7857 20.9283C17.7857 22.4668 16.5385 23.714 15 23.714C13.4615 23.714 12.2143 22.4668 12.2143 20.9283M20.5713 12.1999C20.5713 10.8208 19.9844 9.49819 18.9395 8.52302C17.8947 7.54785 16.4776 7 15 7C13.5224 7 12.1053 7.54785 11.0605 8.52302C10.0156 9.49819 9.42867 10.8208 9.42867 12.1999C9.42867 14.6942 8.80079 16.456 8.06133 17.6659C7.34514 18.8378 6.98705 19.4237 7.00036 19.5759C7.01531 19.7469 7.04906 19.8071 7.18717 19.909C7.31009 19.9998 7.89435 19.9998 9.06287 19.9998H20.9371C22.1056 19.9998 22.6899 19.9998 22.8128 19.909C22.9509 19.8071 22.9847 19.7469 22.9996 19.5759C23.013 19.4237 22.6549 18.8378 21.9387 17.6659C21.1992 16.456 20.5713 14.6942 20.5713 12.1999Z" stroke="#2C3D8F" stroke-width="1.5" stroke-linecap="round" stroke-linejoin="round"/>
</svg>
